<?xml version="1.0" encoding="utf-8"?>
<!-- Generator: Adobe Illustrator 16.0.0, SVG Export Plug-In . SVG Version: 6.00 Build 0)  -->
<!DOCTYPE svg PUBLIC "-//W3C//DTD SVG 1.1//EN" "http://www.w3.org/Graphics/SVG/1.1/DTD/svg11.dtd">
<svg version="1.1" id="Capa_1" xmlns="http://www.w3.org/2000/svg" xmlns:xlink="http://www.w3.org/1999/xlink" x="0px" y="0px"
	 width="50.231px" height="46.806px" viewBox="0 0 50.231 46.806" enable-background="new 0 0 50.231 46.806" xml:space="preserve">
<path fill="#707070" d="M50.022,22.178c-0.306-2.533-1.179-5.014-2.627-7.433c-1.439-2.426-3.396-4.755-5.854-7.002
	c-3.057-2.793-6.021-4.755-8.896-5.878c-2.878-1.122-5.596-1.685-8.137-1.707c-2.548-0.013-4.885,0.376-7.008,1.165
	c-2.116,0.781-3.962,1.665-5.543,2.662c-1.575,0.99-2.857,1.959-3.849,2.91c-0.983,0.941-1.602,1.552-1.83,1.803
	c-4.498,4.92-6.53,10.013-6.091,15.27c0.429,5.268,3.406,10.415,8.92,15.455c3.189,2.915,6.405,4.934,9.655,6.048
	c3.251,1.114,6.385,1.487,9.403,1.119c3.019-0.367,5.868-1.316,8.558-2.858c2.689-1.541,5.069-3.444,7.148-5.718
	c2.481-2.716,4.201-5.396,5.158-8.045C49.995,27.311,50.321,24.72,50.022,22.178z M37.219,18.02c0,0.031,0.005,0.061,0.005,0.093
	c0,0.021-0.005,0.048-0.005,0.077c0,0.009,0.005,0.022,0.005,0.032c0.389,9.97-6.804,18.048-16.06,18.048
	c-3.259,0-6.334-1.001-8.975-2.731c3.883,0.663,7.027-1.418,7.944-2.566c-2.58,0-4.942-2.376-5.128-4.193
	c0.522,0.085,1.712,0.197,2.39-0.197c-3.505-1.031-4.467-3.884-4.427-6.035c0.587,0.613,1.833,0.752,2.508,0.695
	c-1.976-1.313-3.479-5.161-1.739-8.404c2.831,3.974,7.855,6.172,12.153,6.172h0.003c-0.097-1.087-0.149-0.663-0.149-1.136
	c0-3.415,2.569-6.193,5.74-6.193c1.631,0,3.103,0.807,4.146,1.894c-0.002,0-0.002,0-0.002,0c0.92,0,2.775-0.676,3.584-1.232
	c-0.311,1.272-1.557,2.932-2.395,3.422c1.312-0.141,2.715-0.66,3.187-0.938C39.193,16.272,38.064,17.4,37.219,18.02z"/>
</svg>
